<?xml version="1.0" encoding="UTF-8"?>
<svg width="348px" height="349px" viewBox="0 0 348 349" version="1.1" xmlns="http://www.w3.org/2000/svg" xmlns:xlink="http://www.w3.org/1999/xlink">
    <!-- Generator: Sketch 48.2 (47327) - http://www.bohemiancoding.com/sketch -->
    <title>herd-square-mascot-white</title>
    <desc>Created with Sketch.</desc>
    <defs></defs>
    <g id="Page-1" stroke="none" stroke-width="1" fill="none" fill-rule="evenodd">
        <g id="herd-square-mascot-white" transform="translate(-73.000000, -62.000000)" fill="#000000">
            <path d="M143.16445,119.918353 C144.42119,118.740263 145.716217,117.58163 147.048696,116.442101 C165.949523,100.279553 188.734311,90.7788276 214.0384,85.8436471 C227.636466,83.1916581 241.438017,82.2269175 255.292774,82.9812759 C288.037156,84.7632382 317.836597,93.813863 343.017474,113.223505 C344.802003,114.598908 346.52719,116.007668 348.191434,117.450317 C355.103796,116.10213 358.076747,100.575505 351.544124,77.2639789 C350.207223,72.4804904 351.006864,67.1032182 350.815284,62 C356.158722,63.9599015 362.593337,64.6408843 366.670676,68.0914736 C395.107899,92.1649365 399.598798,137.176803 376.517504,162.236255 C376.767881,163.258995 376.999888,164.291189 377.213324,165.33291 C378.726399,172.718079 378.533181,180.208858 378.517312,187.679521 C378.509845,190.708689 378.515446,190.637444 381.760948,191.011271 C393.031064,192.310443 403.003725,196.11241 411.025539,203.52943 C415.038313,207.239197 417.896445,211.591007 419.642875,216.528702 C420.122653,217.883194 420.197326,219.267023 420.196393,220.666777 C420.186125,232.748246 419.910766,244.836421 420.261732,256.909509 C420.499754,265.092621 416.6886,271.501315 410.828587,277.146431 C403.12227,284.566803 393.083335,287.920346 382.187521,289.476838 C375.169134,290.480973 368.225421,290.428168 361.725082,287.367987 C353.723804,283.602063 349.244321,278.011428 349.289125,269.503942 C349.348595,258.190799 349.358618,246.877404 349.353946,235.563903 C348.591023,251.505885 349.268495,264.533929 348.066815,267.964059 C342.415181,284.091723 333.760727,299.143933 327.384419,315.055676 C324.877209,321.321548 322.961402,329.186068 324.456565,335.456092 C331.2202,363.837293 326.180792,376.522673 300.875468,389.531934 C298.459884,390.773482 295.203011,391.620558 293.936912,393.642745 C282.946005,411.186355 265.845337,411.81751 249.731727,410.617485 L202.273834,393.576307 C201.120184,391.545816 197.954936,390.524342 195.572671,389.332622 C170.617191,376.850707 163.578679,363.314099 171.566765,338.038843 C174.607069,328.409582 173.13273,322.098034 168.184947,313.602359 C159.934479,299.430444 153.26247,284.070962 148.068965,268.49971 C145.742871,261.522946 146.011098,233.352739 144.805174,212.454347 C144.798435,215.959106 144.79262,219.463811 144.79262,222.968408 L144.815022,222.968408 C144.815022,238.123469 144.807554,253.277692 144.817822,268.431915 C144.827156,280.661741 135.809383,289.375419 122.10024,289.880839 C106.357175,290.460019 92.4986845,286.272491 81.6952787,275.567307 C76.1395615,270.061329 73.1572839,263.462369 73.0844771,255.969913 C72.9911351,246.333403 73.1638178,236.693541 73.0051364,227.058707 C72.775515,213.033508 80.2550113,203.218466 93.3919677,196.451871 C99.660818,193.222379 106.457051,191.297927 113.664922,190.745569 C115.360013,190.615651 115.601769,190.081733 115.584967,188.731432 C115.526571,183.616815 115.417065,178.505991 115.799456,173.40687 C94.2660109,138.587678 99.9363873,92.5408568 128.817673,68.0914736 C132.895012,64.6408843 139.329628,63.9599015 144.673066,62 C144.481485,67.1032182 145.281127,72.4804904 143.944226,77.2639789 C138.203933,97.748092 138.755868,114.298903 143.16445,119.918353 Z M118.663004,158.266609 C122.169632,146.526608 128.246491,136.055444 136.545775,126.706218 C132.17394,123.090279 128.851648,106.671913 132.037557,90.1998336 C132.682011,86.858887 135.616067,78.019464 135.708419,74.4552076 C129.609713,78.5245899 125.955504,81.6373382 124.74579,83.7934525 C112.443455,105.72032 108.996464,133.751075 118.390236,157.639423 C118.477463,157.861179 118.568568,158.070034 118.663004,158.266609 Z M144.81747,178.29259 C151.681362,181.895474 155.909526,178.212763 158.060578,170.684779 C160.04815,163.72759 176.906948,157.26556 159.495814,148.689744 L155.36359,146.533182 C155.048389,146.988418 154.737242,147.447824 154.430184,147.911421 C148.196859,157.322699 145.2443,167.503456 144.81747,178.29259 Z M165.203731,134.875845 C171.850203,138.946869 184.32423,138.557603 191.766044,138.826479 C192.411588,138.851393 193.069626,138.199477 193.727664,138.199477 C229.898951,138.087364 266.578342,134.283826 302.09159,139.071467 C314.881269,140.796605 323.770167,138.034207 330.013707,136.11922 C320.579017,126.627775 309.179917,119.445317 296.055235,114.526869 C263.922244,102.484794 231.538162,102.223283 199.297827,114.041565 C186.068714,118.891385 174.549161,125.733246 165.203731,134.875845 Z M342.178761,152.263876 L336.728027,148.725261 C328.805795,152.671535 327.127356,155.547211 332.280164,163.784176 C339.35241,175.083805 343.953207,180.466223 349.321772,179.594878 C349.008096,169.81766 346.684774,160.696445 342.178761,152.263876 Z M366.358806,138.308416 L376.343185,148.689744 C385.357564,123.21844 383.044894,105.72032 370.74256,83.7934525 C369.532846,81.6373382 365.878636,78.5245899 359.77993,74.4552076 C359.872282,78.019464 362.806338,86.858887 363.450792,90.1998336 C367.047539,108.796064 359.486073,122.266225 360.260983,129.8302 C362.478916,132.556484 364.514027,135.381725 366.358804,138.308413 Z M174.77504,243.658076 L165.035902,229.416764 C162.228921,229.08038 156.172417,233.411851 156.121841,235.683486 C155.603435,259.670617 162.37222,281.888615 175.665339,301.976176 C176.364977,303.039318 183.458293,302.121527 183.846045,300.933799 C187.689838,289.201866 190.7497,277.220759 192.751676,269.944884 L185.439713,259.252774 C183.809281,263.724975 179.500162,266.920083 174.440749,266.920083 L162.744479,255.286749 C162.744479,248.861837 167.981077,243.653416 174.440749,243.653416 C174.552553,243.653416 174.66399,243.654976 174.77504,243.658076 Z M254.791941,312.142345 C296.27322,312.332989 305.34153,326.237572 289.305597,365.050217 C289.043531,365.684316 288.465322,366.247959 288.386286,366.886202 C288.028546,369.853619 287.795598,372.833468 287.516893,375.805029 C290.861353,375.987384 294.41796,376.998627 297.512833,376.207039 C310.632765,372.85419 316.739315,358.725807 311.64775,342.417451 C305.703431,323.357189 297.795698,304.831559 292.895483,285.535064 C283.219845,247.435263 291.714107,231.843894 327.450736,215.353182 C331.140457,213.645674 335.624695,208.046541 335.441665,204.474037 C333.586405,167.911821 301.398063,143.869947 265.049947,150.285534 C255.054007,152.055208 244.292668,152.710029 234.354965,151.056399 C194.504317,144.421157 170.997426,159.167061 160.535592,198.224227 C158.064685,207.433165 157.79014,213.794874 169.296078,216.720846 C203.115052,225.308118 210.469535,253.502717 203.185768,279.426166 C197.603349,299.298737 191.001786,318.893631 184.533335,338.509248 C180.93929,349.409115 177.902654,360.83947 187.611569,369.244387 C192.486826,373.467567 200.877093,373.662355 207.678325,375.680696 C206.372156,370.918739 205.498603,365.98686 203.693261,361.419691 C190.602448,328.239335 200.523512,313.054121 236.09791,312.142345 C239.558843,312.051167 243.019777,312.129911 246.484869,312.142345 L254.791941,312.142345 Z M224.591397,384.592037 C222.129573,385.068398 220.34859,389.240809 218.256247,391.720437 C220.302924,393.455751 222.328843,396.654174 224.400429,396.6882 C240.039035,396.93914 255.690095,396.751998 271.320398,396.148041 C273.18441,396.075736 276.447469,392.583841 276.339531,390.857033 C276.210835,388.80698 273.358772,385.62557 271.287186,385.251287 C263.283143,383.800938 255.121343,383.269286 248.86507,382.593023 L224.591397,384.592037 Z M311.076306,299.170666 C313.678479,308.435198 318.940468,306.52632 321.12267,299.772151 C327.825737,279.029289 333.717682,257.989862 339.111427,236.854364 C340.873658,229.945646 336.850995,227.335036 329.530325,228.759385 C313.431437,231.896294 302.998041,244.828211 302.837464,267.626145 L311.076306,299.170666 Z M266.003536,368.044426 C275.610893,365.723583 286.27697,346.992535 284.242568,336.456321 C281.929994,324.474201 271.861782,325.34503 263.018363,325.090354 C251.297718,324.757631 239.543859,324.576893 227.839823,325.0616 C214.412772,325.61203 209.991063,332.710111 213.084183,345.694506 C217.630448,364.774708 223.584187,369.198685 251.675536,369.40407 L266.003536,368.044426 Z M319.590733,266.920083 L307.894463,255.286749 C307.894463,248.861837 313.131062,243.653416 319.590733,243.653416 C326.050405,243.653416 331.287003,248.861837 331.287003,255.286749 C331.287003,261.711662 326.050405,266.920083 319.590733,266.920083 Z M226.093221,350.448861 L218.247276,342.645135 C218.247276,338.335255 221.760025,334.841408 226.093221,334.841408 C230.426417,334.841408 233.939166,338.335255 233.939166,342.645135 C233.939166,346.955014 230.426417,350.448861 226.093221,350.448861 Z M270.844167,350.448861 L262.998222,342.645135 C262.998222,338.335255 266.510971,334.841408 270.844167,334.841408 C275.177363,334.841408 278.690112,338.335255 278.690112,342.645135 C278.690112,346.955014 275.177363,350.448861 270.844167,350.448861 Z M357.380011,222.928176 L357.491088,222.928176 C357.491088,232.775906 357.490155,242.623636 357.491088,252.471366 C357.491088,258.267354 357.549894,264.065017 357.474287,269.861005 C357.426682,273.518805 358.721336,276.543782 361.978973,278.836194 C364.660689,280.722928 367.640166,281.938283 371.021948,282.416882 C377.104114,283.274336 382.958526,282.183031 388.699994,280.632405 C398.917212,277.872291 406.902622,272.655484 411.081544,263.477456 C411.616394,262.301495 411.93189,261.134754 411.92909,259.843963 C411.906688,246.993886 411.906688,234.142971 411.966427,221.292894 C411.974827,219.427953 411.550121,217.72897 410.700709,216.050103 C407.21065,209.159458 401.247962,204.605648 393.748864,201.495176 C388.022331,199.119785 381.912162,198.326033 375.692783,197.822289 C371.9395,197.518031 370.376021,195.746127 370.350819,192.392585 C370.316282,188.132136 370.366687,183.871687 370.349885,179.611238 C370.306948,169.308378 368.189018,159.381021 363.562053,149.926396 C354.090638,130.572073 338.303702,116.373371 317.925271,106.405782 C281.234389,88.4595945 242.586124,85.5201111 202.730014,96.1465069 C179.787478,102.263516 159.857089,113.019829 144.387515,129.748984 C133.435696,141.59325 126.482648,155.068606 124.325514,170.455841 C123.348223,177.425275 123.766396,184.3989 123.801865,191.376715 C123.826134,196.123306 122.028367,197.87258 116.732141,197.973161 C109.894837,198.10224 103.548513,199.791164 97.6399632,202.72981 C88.092941,207.478915 81.6112709,214.334357 81.2995086,224.544179 C80.9793454,235.011321 81.1697632,245.491875 81.2519041,255.966561 C81.2892409,260.62179 82.8919235,264.945102 86.0226149,268.638944 C94.9834492,279.213373 107.448343,283.175431 121.656866,282.472201 C130.076316,282.055628 136.891217,277.757461 136.725069,267.31295 C136.27236,238.753777 136.588789,210.185385 136.550519,181.620346 C136.537451,171.461653 138.298815,161.623981 142.845505,152.274965 C151.52538,134.427683 166.089536,121.435954 184.853149,112.193387 C213.682767,97.9921705 244.416561,94.947077 276.279794,101.064086 C298.783623,105.384883 318.618803,114.533575 334.570954,129.754013 C348.973629,143.496747 357.084117,159.69869 357.340808,178.720257 C357.539626,193.454554 357.380011,208.192203 357.380011,222.928176 Z" id="Combined-Shape"></path>
        </g>
    </g>
</svg>